^C:\USERS\USER\DESKTOP\POO\POOI\HOLAMUNDO\X64\DEBUG\HOLAMUNDO.OBJ
C:\USERS\USER\DESKTOP\POO\POOI\X64\DEBUG\HOLAMUNDO.EXE
C:\USERS\USER\DESKTOP\POO\POOI\HOLAMUNDO\X64\DEBUG\HOLAMUNDO.ILK
C:\USERS\USER\DESKTOP\POO\POOI\X64\DEBUG\HOLAMUNDO.PDB
